{
	"$schema": "https://raw.githubusercontent.com/martinring/tmlanguage/master/tmlanguage.json",
	"name": "Csic",
	"scopeName": "source.csic",
	"patterns": [
		{
			"include": "#comment-block"
		},
		{
			"include": "#comment-line"
		},
		{
			"include": "#implicit"
		},
		{
			"include": "#universe-type"
		},
		{
			"include": "#level-args"
		},
		{
			"include": "#multi-args"
		},
		{
			"include": "#special-operator"
		},
		{
			"include": "#operator"
		},
		{
			"include": "#constructor"
		},
		{
			"include": "#keyword"
		},
		{
			"include": "#identifier"
		},
		{
			"include": "#number"
		},
		{
			"include": "#string"
		}
	],
	"repository": {
		"comment-block": {
			"name": "comment.block.csic",
			"begin": "{-",
			"end": "-}",
			"patterns": [
				{
					"include": "#comment-block"
				}
			]
		},
		"comment-line": {
			"name": "comment.line.double-dash.csic",
			"begin": "--",
			"end": "$"
		},
		"implicit": {
			"name": "support.class.csic",
			"match": "`\\w+([=%]|@%)?",
			"captures": {
				"1": {
					"name": "punctuation.definition.tag.csic"
				}
			}
		},
		"universe-type": {
			"name": "token.warn-token.csic",
			"match": "\\B@(\\w+|\\([^()]*\\))",
			"captures": {
				"1": {
					"name": "punctuation.definition.tag.csic"
				}
			}
		},
		"level-args": {
			"name": "punctuation.definition.tag.csic",
			"match": "@(\\{[^{}]*\\})?"
		},
		"multi-args": {
			"name": "punctuation.definition.tag.csic",
			"match": "%[+]?(\\w+|\\([^()]*\\)|\\{[^{}]*\\})"
		},
		"special-operator": {
			"name": "token.warn-token.csic",
			"match": "#"
		},
		"operator": {
			"name": "keyword.operator.csic",
			"match": "[:!#$%&*+./<=>?@\\^|\\-~]+"
		},
		"constructor": {
			"name": "constant.language.csic",
			"match": "'\\w+"
		},
		"keyword": {
			"name": "keyword.control.csic",
			"match": "\\b(import|macro|mutual|data|record|class|instance|ability|axiom|case|of|if|then|else|do|rec|this|public|private)\\b"
		},
		"identifier": {
			"name": "variable.name.csic",
			"match": "[[:alpha:]][\\w']*"
		},
		"number": {
			"name": "constant.numeric.csic",
			"match": "\\d+([[:alpha:]]*)",
			"captures": {
				"1": {
					"name": "punctuation.definition.tag.csic"
				}
			}
		},
		"string": {
			"name": "string.quoted.double.csic",
			"begin": "\"",
			"end": "\"([[:alpha:]]*)",
			"endCaptures": {
				"1": {
					"name": "punctuation.definition.tag.csic"
				}
			},
			"patterns": [
				{
					"name": "constant.character.escape.csic",
					"match": "\\\\."
				}
			]
		}
	}
}